<?xml version="1.0" encoding="utf-8"?>
<!-- Generator: Adobe Illustrator 16.0.0, SVG Export Plug-In . SVG Version: 6.00 Build 0)  -->
<!DOCTYPE svg PUBLIC "-//W3C//DTD SVG 1.1//EN" "http://www.w3.org/Graphics/SVG/1.1/DTD/svg11.dtd">
<svg version="1.1" id="Layer_2" xmlns="http://www.w3.org/2000/svg" xmlns:xlink="http://www.w3.org/1999/xlink" x="0px" y="0px"
	 width="80px" height="80px" viewBox="0 0 80 80" enable-background="new 0 0 80 80" xml:space="preserve">
<rect x="1" y="1" fill="#FFFFFF" width="20" height="2"/>
<rect x="1" y="8" fill="#FFFFFF" width="20" height="2"/>
<rect x="1" y="15" fill="#FFFFFF" width="20" height="2"/>
<rect x="1" y="31.875" transform="matrix(0.7071 -0.7071 0.7071 0.7071 -20.0243 17.407)" fill="#FFFFFF" width="20" height="2"/>
<rect x="1" y="31.875" transform="matrix(0.7071 0.7071 -0.7071 0.7071 26.468 1.8507)" fill="#FFFFFF" width="20" height="2"/>
</svg>
